%YAML 1.1
%TAG !u! tag:unity3d.com,2011:
--- !u!1 &2455611090184373953
GameObject:
  m_ObjectHideFlags: 0
  m_CorrespondingSourceObject: {fileID: 0}
  m_PrefabInstance: {fileID: 0}
  m_PrefabAsset: {fileID: 0}
  serializedVersion: 6
  m_Component:
  - component: {fileID: 4590114946342762325}
  m_Layer: 0
  m_Name: AllStone4x5
  m_TagString: Untagged
  m_Icon: {fileID: 0}
  m_NavMeshLayer: 0
  m_StaticEditorFlags: 0
  m_IsActive: 1
--- !u!4 &4590114946342762325
Transform:
  m_ObjectHideFlags: 0
  m_CorrespondingSourceObject: {fileID: 0}
  m_PrefabInstance: {fileID: 0}
  m_PrefabAsset: {fileID: 0}
  m_GameObject: {fileID: 2455611090184373953}
  m_LocalRotation: {x: 0, y: 0, z: 0, w: 1}
  m_LocalPosition: {x: 0, y: 0, z: 0}
  m_LocalScale: {x: 1, y: 1, z: 1}
  m_Children:
  - {fileID: 1417026217699478028}
  - {fileID: 4055264330557905168}
  m_Father: {fileID: 0}
  m_RootOrder: 0
  m_LocalEulerAnglesHint: {x: 0, y: 0, z: 0}
--- !u!1001 &2420934181632961226
PrefabInstance:
  m_ObjectHideFlags: 0
  serializedVersion: 2
  m_Modification:
    m_TransformParent: {fileID: 4590114946342762325}
    m_Modifications:
    - target: {fileID: 1864441470033998810, guid: 0a261ac06c58acab988d038b32d8032a, type: 3}
      propertyPath: m_LocalPosition.x
      value: 0
      objectReference: {fileID: 0}
    - target: {fileID: 1864441470033998810, guid: 0a261ac06c58acab988d038b32d8032a, type: 3}
      propertyPath: m_LocalPosition.y
      value: -2
      objectReference: {fileID: 0}
    - target: {fileID: 1864441470033998810, guid: 0a261ac06c58acab988d038b32d8032a, type: 3}
      propertyPath: m_LocalPosition.z
      value: 0
      objectReference: {fileID: 0}
    - target: {fileID: 1864441470033998810, guid: 0a261ac06c58acab988d038b32d8032a, type: 3}
      propertyPath: m_LocalRotation.x
      value: 0
      objectReference: {fileID: 0}
    - target: {fileID: 1864441470033998810, guid: 0a261ac06c58acab988d038b32d8032a, type: 3}
      propertyPath: m_LocalRotation.y
      value: 0
      objectReference: {fileID: 0}
    - target: {fileID: 1864441470033998810, guid: 0a261ac06c58acab988d038b32d8032a, type: 3}
      propertyPath: m_LocalRotation.z
      value: 0
      objectReference: {fileID: 0}
    - target: {fileID: 1864441470033998810, guid: 0a261ac06c58acab988d038b32d8032a, type: 3}
      propertyPath: m_LocalRotation.w
      value: 1
      objectReference: {fileID: 0}
    - target: {fileID: 1864441470033998810, guid: 0a261ac06c58acab988d038b32d8032a, type: 3}
      propertyPath: m_RootOrder
      value: 1
      objectReference: {fileID: 0}
    - target: {fileID: 1864441470033998810, guid: 0a261ac06c58acab988d038b32d8032a, type: 3}
      propertyPath: m_LocalEulerAnglesHint.x
      value: 0
      objectReference: {fileID: 0}
    - target: {fileID: 1864441470033998810, guid: 0a261ac06c58acab988d038b32d8032a, type: 3}
      propertyPath: m_LocalEulerAnglesHint.y
      value: 0
      objectReference: {fileID: 0}
    - target: {fileID: 1864441470033998810, guid: 0a261ac06c58acab988d038b32d8032a, type: 3}
      propertyPath: m_LocalEulerAnglesHint.z
      value: 0
      objectReference: {fileID: 0}
    - target: {fileID: 4894499363945503238, guid: 0a261ac06c58acab988d038b32d8032a, type: 3}
      propertyPath: m_Enabled
      value: 0
      objectReference: {fileID: 0}
    - target: {fileID: 7331172608203341580, guid: 0a261ac06c58acab988d038b32d8032a, type: 3}
      propertyPath: m_Enabled
      value: 0
      objectReference: {fileID: 0}
    - target: {fileID: 7818263958816260305, guid: 0a261ac06c58acab988d038b32d8032a, type: 3}
      propertyPath: m_Name
      value: AllStone4x3
      objectReference: {fileID: 0}
    m_RemovedComponents: []
  m_SourcePrefab: {fileID: 100100000, guid: 0a261ac06c58acab988d038b32d8032a, type: 3}
--- !u!4 &4055264330557905168 stripped
Transform:
  m_CorrespondingSourceObject: {fileID: 1864441470033998810, guid: 0a261ac06c58acab988d038b32d8032a, type: 3}
  m_PrefabInstance: {fileID: 2420934181632961226}
  m_PrefabAsset: {fileID: 0}
--- !u!1001 &3236932715709552198
PrefabInstance:
  m_ObjectHideFlags: 0
  serializedVersion: 2
  m_Modification:
    m_TransformParent: {fileID: 4590114946342762325}
    m_Modifications:
    - target: {fileID: 252745084644058728, guid: 018b272d916d61dea8753c498a44b4db, type: 3}
      propertyPath: m_Enabled
      value: 1
      objectReference: {fileID: 0}
    - target: {fileID: 2724855658728850274, guid: 018b272d916d61dea8753c498a44b4db, type: 3}
      propertyPath: m_Enabled
      value: 1
      objectReference: {fileID: 0}
    - target: {fileID: 4558114453237914698, guid: 018b272d916d61dea8753c498a44b4db, type: 3}
      propertyPath: m_LocalPosition.x
      value: 0
      objectReference: {fileID: 0}
    - target: {fileID: 4558114453237914698, guid: 018b272d916d61dea8753c498a44b4db, type: 3}
      propertyPath: m_LocalPosition.y
      value: 0
      objectReference: {fileID: 0}
    - target: {fileID: 4558114453237914698, guid: 018b272d916d61dea8753c498a44b4db, type: 3}
      propertyPath: m_LocalPosition.z
      value: 0
      objectReference: {fileID: 0}
    - target: {fileID: 4558114453237914698, guid: 018b272d916d61dea8753c498a44b4db, type: 3}
      propertyPath: m_LocalRotation.x
      value: 0
      objectReference: {fileID: 0}
    - target: {fileID: 4558114453237914698, guid: 018b272d916d61dea8753c498a44b4db, type: 3}
      propertyPath: m_LocalRotation.y
      value: 0
      objectReference: {fileID: 0}
    - target: {fileID: 4558114453237914698, guid: 018b272d916d61dea8753c498a44b4db, type: 3}
      propertyPath: m_LocalRotation.z
      value: 0
      objectReference: {fileID: 0}
    - target: {fileID: 4558114453237914698, guid: 018b272d916d61dea8753c498a44b4db, type: 3}
      propertyPath: m_LocalRotation.w
      value: 1
      objectReference: {fileID: 0}
    - target: {fileID: 4558114453237914698, guid: 018b272d916d61dea8753c498a44b4db, type: 3}
      propertyPath: m_RootOrder
      value: 0
      objectReference: {fileID: 0}
    - target: {fileID: 4558114453237914698, guid: 018b272d916d61dea8753c498a44b4db, type: 3}
      propertyPath: m_LocalEulerAnglesHint.x
      value: 0
      objectReference: {fileID: 0}
    - target: {fileID: 4558114453237914698, guid: 018b272d916d61dea8753c498a44b4db, type: 3}
      propertyPath: m_LocalEulerAnglesHint.y
      value: 0
      objectReference: {fileID: 0}
    - target: {fileID: 4558114453237914698, guid: 018b272d916d61dea8753c498a44b4db, type: 3}
      propertyPath: m_LocalEulerAnglesHint.z
      value: 0
      objectReference: {fileID: 0}
    - target: {fileID: 4873353976737519079, guid: 018b272d916d61dea8753c498a44b4db, type: 3}
      propertyPath: m_Name
      value: AllStone4x2
      objectReference: {fileID: 0}
    m_RemovedComponents: []
  m_SourcePrefab: {fileID: 100100000, guid: 018b272d916d61dea8753c498a44b4db, type: 3}
--- !u!4 &1417026217699478028 stripped
Transform:
  m_CorrespondingSourceObject: {fileID: 4558114453237914698, guid: 018b272d916d61dea8753c498a44b4db, type: 3}
  m_PrefabInstance: {fileID: 3236932715709552198}
  m_PrefabAsset: {fileID: 0}
