%YAML 1.1
%TAG !u! tag:unity3d.com,2011:
--- !u!1 &4188529036139570834
GameObject:
  m_ObjectHideFlags: 0
  m_CorrespondingSourceObject: {fileID: 0}
  m_PrefabInstance: {fileID: 0}
  m_PrefabAsset: {fileID: 0}
  serializedVersion: 6
  m_Component:
  - component: {fileID: 6388785063462786939}
  m_Layer: 0
  m_Name: AllStone16x4
  m_TagString: Untagged
  m_Icon: {fileID: 0}
  m_NavMeshLayer: 0
  m_StaticEditorFlags: 0
  m_IsActive: 1
--- !u!4 &6388785063462786939
Transform:
  m_ObjectHideFlags: 0
  m_CorrespondingSourceObject: {fileID: 0}
  m_PrefabInstance: {fileID: 0}
  m_PrefabAsset: {fileID: 0}
  m_GameObject: {fileID: 4188529036139570834}
  m_LocalRotation: {x: 0, y: 0, z: 0, w: 1}
  m_LocalPosition: {x: 0, y: 0, z: 0}
  m_LocalScale: {x: 1, y: 1, z: 1}
  m_Children:
  - {fileID: 1866251654261870196}
  - {fileID: 9030446088952045739}
  m_Father: {fileID: 0}
  m_RootOrder: 0
  m_LocalEulerAnglesHint: {x: 0, y: 0, z: 0}
--- !u!1001 &3278594368607875166
PrefabInstance:
  m_ObjectHideFlags: 0
  serializedVersion: 2
  m_Modification:
    m_TransformParent: {fileID: 6388785063462786939}
    m_Modifications:
    - target: {fileID: 3790247242140778026, guid: 28638880346a1cc83ad1ee7a605cce62, type: 3}
      propertyPath: m_LocalPosition.x
      value: 0
      objectReference: {fileID: 0}
    - target: {fileID: 3790247242140778026, guid: 28638880346a1cc83ad1ee7a605cce62, type: 3}
      propertyPath: m_LocalPosition.y
      value: 0
      objectReference: {fileID: 0}
    - target: {fileID: 3790247242140778026, guid: 28638880346a1cc83ad1ee7a605cce62, type: 3}
      propertyPath: m_LocalPosition.z
      value: 0
      objectReference: {fileID: 0}
    - target: {fileID: 3790247242140778026, guid: 28638880346a1cc83ad1ee7a605cce62, type: 3}
      propertyPath: m_LocalRotation.x
      value: 0
      objectReference: {fileID: 0}
    - target: {fileID: 3790247242140778026, guid: 28638880346a1cc83ad1ee7a605cce62, type: 3}
      propertyPath: m_LocalRotation.y
      value: 0
      objectReference: {fileID: 0}
    - target: {fileID: 3790247242140778026, guid: 28638880346a1cc83ad1ee7a605cce62, type: 3}
      propertyPath: m_LocalRotation.z
      value: 0
      objectReference: {fileID: 0}
    - target: {fileID: 3790247242140778026, guid: 28638880346a1cc83ad1ee7a605cce62, type: 3}
      propertyPath: m_LocalRotation.w
      value: 1
      objectReference: {fileID: 0}
    - target: {fileID: 3790247242140778026, guid: 28638880346a1cc83ad1ee7a605cce62, type: 3}
      propertyPath: m_RootOrder
      value: 0
      objectReference: {fileID: 0}
    - target: {fileID: 3790247242140778026, guid: 28638880346a1cc83ad1ee7a605cce62, type: 3}
      propertyPath: m_LocalEulerAnglesHint.x
      value: 0
      objectReference: {fileID: 0}
    - target: {fileID: 3790247242140778026, guid: 28638880346a1cc83ad1ee7a605cce62, type: 3}
      propertyPath: m_LocalEulerAnglesHint.y
      value: 0
      objectReference: {fileID: 0}
    - target: {fileID: 3790247242140778026, guid: 28638880346a1cc83ad1ee7a605cce62, type: 3}
      propertyPath: m_LocalEulerAnglesHint.z
      value: 0
      objectReference: {fileID: 0}
    - target: {fileID: 5117217867374175878, guid: 28638880346a1cc83ad1ee7a605cce62, type: 3}
      propertyPath: m_Name
      value: AllStone16x1
      objectReference: {fileID: 0}
    m_RemovedComponents: []
  m_SourcePrefab: {fileID: 100100000, guid: 28638880346a1cc83ad1ee7a605cce62, type: 3}
--- !u!4 &1866251654261870196 stripped
Transform:
  m_CorrespondingSourceObject: {fileID: 3790247242140778026, guid: 28638880346a1cc83ad1ee7a605cce62, type: 3}
  m_PrefabInstance: {fileID: 3278594368607875166}
  m_PrefabAsset: {fileID: 0}
--- !u!1001 &3850073271622571434
PrefabInstance:
  m_ObjectHideFlags: 0
  serializedVersion: 2
  m_Modification:
    m_TransformParent: {fileID: 6388785063462786939}
    m_Modifications:
    - target: {fileID: 1172913244092168094, guid: 2818ae6094a7226b5906afca2130bdf2, type: 3}
      propertyPath: m_Name
      value: AllStone16x3
      objectReference: {fileID: 0}
    - target: {fileID: 2380526210337540299, guid: 2818ae6094a7226b5906afca2130bdf2, type: 3}
      propertyPath: m_Enabled
      value: 0
      objectReference: {fileID: 0}
    - target: {fileID: 5205215463294334209, guid: 2818ae6094a7226b5906afca2130bdf2, type: 3}
      propertyPath: m_LocalPosition.x
      value: 0
      objectReference: {fileID: 0}
    - target: {fileID: 5205215463294334209, guid: 2818ae6094a7226b5906afca2130bdf2, type: 3}
      propertyPath: m_LocalPosition.y
      value: -1
      objectReference: {fileID: 0}
    - target: {fileID: 5205215463294334209, guid: 2818ae6094a7226b5906afca2130bdf2, type: 3}
      propertyPath: m_LocalPosition.z
      value: 0
      objectReference: {fileID: 0}
    - target: {fileID: 5205215463294334209, guid: 2818ae6094a7226b5906afca2130bdf2, type: 3}
      propertyPath: m_LocalRotation.x
      value: 0
      objectReference: {fileID: 0}
    - target: {fileID: 5205215463294334209, guid: 2818ae6094a7226b5906afca2130bdf2, type: 3}
      propertyPath: m_LocalRotation.y
      value: 0
      objectReference: {fileID: 0}
    - target: {fileID: 5205215463294334209, guid: 2818ae6094a7226b5906afca2130bdf2, type: 3}
      propertyPath: m_LocalRotation.z
      value: 0
      objectReference: {fileID: 0}
    - target: {fileID: 5205215463294334209, guid: 2818ae6094a7226b5906afca2130bdf2, type: 3}
      propertyPath: m_LocalRotation.w
      value: 1
      objectReference: {fileID: 0}
    - target: {fileID: 5205215463294334209, guid: 2818ae6094a7226b5906afca2130bdf2, type: 3}
      propertyPath: m_RootOrder
      value: 1
      objectReference: {fileID: 0}
    - target: {fileID: 5205215463294334209, guid: 2818ae6094a7226b5906afca2130bdf2, type: 3}
      propertyPath: m_LocalEulerAnglesHint.x
      value: 0
      objectReference: {fileID: 0}
    - target: {fileID: 5205215463294334209, guid: 2818ae6094a7226b5906afca2130bdf2, type: 3}
      propertyPath: m_LocalEulerAnglesHint.y
      value: 0
      objectReference: {fileID: 0}
    - target: {fileID: 5205215463294334209, guid: 2818ae6094a7226b5906afca2130bdf2, type: 3}
      propertyPath: m_LocalEulerAnglesHint.z
      value: 0
      objectReference: {fileID: 0}
    - target: {fileID: 7893157139906907092, guid: 2818ae6094a7226b5906afca2130bdf2, type: 3}
      propertyPath: m_Enabled
      value: 0
      objectReference: {fileID: 0}
    m_RemovedComponents: []
  m_SourcePrefab: {fileID: 100100000, guid: 2818ae6094a7226b5906afca2130bdf2, type: 3}
--- !u!4 &9030446088952045739 stripped
Transform:
  m_CorrespondingSourceObject: {fileID: 5205215463294334209, guid: 2818ae6094a7226b5906afca2130bdf2, type: 3}
  m_PrefabInstance: {fileID: 3850073271622571434}
  m_PrefabAsset: {fileID: 0}
