%YAML 1.1
%TAG !u! tag:unity3d.com,2011:
--- !u!1 &8347197879771663233
GameObject:
  m_ObjectHideFlags: 0
  m_CorrespondingSourceObject: {fileID: 0}
  m_PrefabInstance: {fileID: 0}
  m_PrefabAsset: {fileID: 0}
  serializedVersion: 6
  m_Component:
  - component: {fileID: 5697617171875498059}
  m_Layer: 0
  m_Name: AllStone3x5
  m_TagString: Untagged
  m_Icon: {fileID: 0}
  m_NavMeshLayer: 0
  m_StaticEditorFlags: 0
  m_IsActive: 1
--- !u!4 &5697617171875498059
Transform:
  m_ObjectHideFlags: 0
  m_CorrespondingSourceObject: {fileID: 0}
  m_PrefabInstance: {fileID: 0}
  m_PrefabAsset: {fileID: 0}
  m_GameObject: {fileID: 8347197879771663233}
  m_LocalRotation: {x: 0, y: 0, z: 0, w: 1}
  m_LocalPosition: {x: 0, y: 0, z: 0}
  m_LocalScale: {x: 1, y: 1, z: 1}
  m_Children:
  - {fileID: 7487104007559447615}
  - {fileID: 1093365564021982964}
  m_Father: {fileID: 0}
  m_RootOrder: 0
  m_LocalEulerAnglesHint: {x: 0, y: 0, z: 0}
--- !u!1001 &428894942327360802
PrefabInstance:
  m_ObjectHideFlags: 0
  serializedVersion: 2
  m_Modification:
    m_TransformParent: {fileID: 5697617171875498059}
    m_Modifications:
    - target: {fileID: 783581931614669782, guid: d33241d35478f07b89b9dcff04e95bdc, type: 3}
      propertyPath: m_LocalPosition.x
      value: 0
      objectReference: {fileID: 0}
    - target: {fileID: 783581931614669782, guid: d33241d35478f07b89b9dcff04e95bdc, type: 3}
      propertyPath: m_LocalPosition.y
      value: -1
      objectReference: {fileID: 0}
    - target: {fileID: 783581931614669782, guid: d33241d35478f07b89b9dcff04e95bdc, type: 3}
      propertyPath: m_LocalPosition.z
      value: 0
      objectReference: {fileID: 0}
    - target: {fileID: 783581931614669782, guid: d33241d35478f07b89b9dcff04e95bdc, type: 3}
      propertyPath: m_LocalRotation.x
      value: 0
      objectReference: {fileID: 0}
    - target: {fileID: 783581931614669782, guid: d33241d35478f07b89b9dcff04e95bdc, type: 3}
      propertyPath: m_LocalRotation.y
      value: 0
      objectReference: {fileID: 0}
    - target: {fileID: 783581931614669782, guid: d33241d35478f07b89b9dcff04e95bdc, type: 3}
      propertyPath: m_LocalRotation.z
      value: 0
      objectReference: {fileID: 0}
    - target: {fileID: 783581931614669782, guid: d33241d35478f07b89b9dcff04e95bdc, type: 3}
      propertyPath: m_LocalRotation.w
      value: 1
      objectReference: {fileID: 0}
    - target: {fileID: 783581931614669782, guid: d33241d35478f07b89b9dcff04e95bdc, type: 3}
      propertyPath: m_RootOrder
      value: 1
      objectReference: {fileID: 0}
    - target: {fileID: 783581931614669782, guid: d33241d35478f07b89b9dcff04e95bdc, type: 3}
      propertyPath: m_LocalEulerAnglesHint.x
      value: 0
      objectReference: {fileID: 0}
    - target: {fileID: 783581931614669782, guid: d33241d35478f07b89b9dcff04e95bdc, type: 3}
      propertyPath: m_LocalEulerAnglesHint.y
      value: 0
      objectReference: {fileID: 0}
    - target: {fileID: 783581931614669782, guid: d33241d35478f07b89b9dcff04e95bdc, type: 3}
      propertyPath: m_LocalEulerAnglesHint.z
      value: 0
      objectReference: {fileID: 0}
    - target: {fileID: 1885325068506599935, guid: d33241d35478f07b89b9dcff04e95bdc, type: 3}
      propertyPath: m_Enabled
      value: 0
      objectReference: {fileID: 0}
    - target: {fileID: 4692678469964226283, guid: d33241d35478f07b89b9dcff04e95bdc, type: 3}
      propertyPath: m_Name
      value: AllStone3x4
      objectReference: {fileID: 0}
    - target: {fileID: 8510919042426749848, guid: d33241d35478f07b89b9dcff04e95bdc, type: 3}
      propertyPath: m_Enabled
      value: 0
      objectReference: {fileID: 0}
    m_RemovedComponents: []
  m_SourcePrefab: {fileID: 100100000, guid: d33241d35478f07b89b9dcff04e95bdc, type: 3}
--- !u!4 &1093365564021982964 stripped
Transform:
  m_CorrespondingSourceObject: {fileID: 783581931614669782, guid: d33241d35478f07b89b9dcff04e95bdc, type: 3}
  m_PrefabInstance: {fileID: 428894942327360802}
  m_PrefabAsset: {fileID: 0}
--- !u!1001 &1869276478895181014
PrefabInstance:
  m_ObjectHideFlags: 0
  serializedVersion: 2
  m_Modification:
    m_TransformParent: {fileID: 5697617171875498059}
    m_Modifications:
    - target: {fileID: 8548778792391542583, guid: 349e5b45df97fa9e29424fdf6874a705, type: 3}
      propertyPath: m_Name
      value: AllStone3x1
      objectReference: {fileID: 0}
    - target: {fileID: 9085599246605240553, guid: 349e5b45df97fa9e29424fdf6874a705, type: 3}
      propertyPath: m_LocalPosition.x
      value: 0
      objectReference: {fileID: 0}
    - target: {fileID: 9085599246605240553, guid: 349e5b45df97fa9e29424fdf6874a705, type: 3}
      propertyPath: m_LocalPosition.y
      value: 0
      objectReference: {fileID: 0}
    - target: {fileID: 9085599246605240553, guid: 349e5b45df97fa9e29424fdf6874a705, type: 3}
      propertyPath: m_LocalPosition.z
      value: 0
      objectReference: {fileID: 0}
    - target: {fileID: 9085599246605240553, guid: 349e5b45df97fa9e29424fdf6874a705, type: 3}
      propertyPath: m_LocalRotation.x
      value: 0
      objectReference: {fileID: 0}
    - target: {fileID: 9085599246605240553, guid: 349e5b45df97fa9e29424fdf6874a705, type: 3}
      propertyPath: m_LocalRotation.y
      value: 0
      objectReference: {fileID: 0}
    - target: {fileID: 9085599246605240553, guid: 349e5b45df97fa9e29424fdf6874a705, type: 3}
      propertyPath: m_LocalRotation.z
      value: 0
      objectReference: {fileID: 0}
    - target: {fileID: 9085599246605240553, guid: 349e5b45df97fa9e29424fdf6874a705, type: 3}
      propertyPath: m_LocalRotation.w
      value: 1
      objectReference: {fileID: 0}
    - target: {fileID: 9085599246605240553, guid: 349e5b45df97fa9e29424fdf6874a705, type: 3}
      propertyPath: m_RootOrder
      value: 0
      objectReference: {fileID: 0}
    - target: {fileID: 9085599246605240553, guid: 349e5b45df97fa9e29424fdf6874a705, type: 3}
      propertyPath: m_LocalEulerAnglesHint.x
      value: 0
      objectReference: {fileID: 0}
    - target: {fileID: 9085599246605240553, guid: 349e5b45df97fa9e29424fdf6874a705, type: 3}
      propertyPath: m_LocalEulerAnglesHint.y
      value: 0
      objectReference: {fileID: 0}
    - target: {fileID: 9085599246605240553, guid: 349e5b45df97fa9e29424fdf6874a705, type: 3}
      propertyPath: m_LocalEulerAnglesHint.z
      value: 0
      objectReference: {fileID: 0}
    m_RemovedComponents: []
  m_SourcePrefab: {fileID: 100100000, guid: 349e5b45df97fa9e29424fdf6874a705, type: 3}
--- !u!4 &7487104007559447615 stripped
Transform:
  m_CorrespondingSourceObject: {fileID: 9085599246605240553, guid: 349e5b45df97fa9e29424fdf6874a705, type: 3}
  m_PrefabInstance: {fileID: 1869276478895181014}
  m_PrefabAsset: {fileID: 0}
