%YAML 1.1
%TAG !u! tag:unity3d.com,2011:
--- !u!1 &4555058971484147880
GameObject:
  m_ObjectHideFlags: 0
  m_CorrespondingSourceObject: {fileID: 0}
  m_PrefabInstance: {fileID: 0}
  m_PrefabAsset: {fileID: 0}
  serializedVersion: 6
  m_Component:
  - component: {fileID: 8815309789709650847}
  m_Layer: 0
  m_Name: AllStone1x4
  m_TagString: Untagged
  m_Icon: {fileID: 0}
  m_NavMeshLayer: 0
  m_StaticEditorFlags: 0
  m_IsActive: 1
--- !u!4 &8815309789709650847
Transform:
  m_ObjectHideFlags: 0
  m_CorrespondingSourceObject: {fileID: 0}
  m_PrefabInstance: {fileID: 0}
  m_PrefabAsset: {fileID: 0}
  m_GameObject: {fileID: 4555058971484147880}
  m_LocalRotation: {x: 0, y: 0, z: 0, w: 1}
  m_LocalPosition: {x: 0, y: 0, z: 0}
  m_LocalScale: {x: 1, y: 1, z: 1}
  m_Children:
  - {fileID: 5144601332251469116}
  - {fileID: 5044559369434904146}
  m_Father: {fileID: 0}
  m_RootOrder: 0
  m_LocalEulerAnglesHint: {x: 0, y: 0, z: 0}
--- !u!1001 &2927584621287608558
PrefabInstance:
  m_ObjectHideFlags: 0
  serializedVersion: 2
  m_Modification:
    m_TransformParent: {fileID: 8815309789709650847}
    m_Modifications:
    - target: {fileID: 688399575449966176, guid: 29bc47bcbc793c960849ba7fd8528f72, type: 3}
      propertyPath: m_Name
      value: AllStone1x3
      objectReference: {fileID: 0}
    - target: {fileID: 1297442148593344856, guid: 29bc47bcbc793c960849ba7fd8528f72, type: 3}
      propertyPath: m_Enabled
      value: 0
      objectReference: {fileID: 0}
    - target: {fileID: 4930365883790149935, guid: 29bc47bcbc793c960849ba7fd8528f72, type: 3}
      propertyPath: m_Enabled
      value: 1
      objectReference: {fileID: 0}
    - target: {fileID: 7971721772568913596, guid: 29bc47bcbc793c960849ba7fd8528f72, type: 3}
      propertyPath: m_LocalPosition.x
      value: 0
      objectReference: {fileID: 0}
    - target: {fileID: 7971721772568913596, guid: 29bc47bcbc793c960849ba7fd8528f72, type: 3}
      propertyPath: m_LocalPosition.y
      value: -1
      objectReference: {fileID: 0}
    - target: {fileID: 7971721772568913596, guid: 29bc47bcbc793c960849ba7fd8528f72, type: 3}
      propertyPath: m_LocalPosition.z
      value: 0
      objectReference: {fileID: 0}
    - target: {fileID: 7971721772568913596, guid: 29bc47bcbc793c960849ba7fd8528f72, type: 3}
      propertyPath: m_LocalRotation.x
      value: 0
      objectReference: {fileID: 0}
    - target: {fileID: 7971721772568913596, guid: 29bc47bcbc793c960849ba7fd8528f72, type: 3}
      propertyPath: m_LocalRotation.y
      value: 0
      objectReference: {fileID: 0}
    - target: {fileID: 7971721772568913596, guid: 29bc47bcbc793c960849ba7fd8528f72, type: 3}
      propertyPath: m_LocalRotation.z
      value: 0
      objectReference: {fileID: 0}
    - target: {fileID: 7971721772568913596, guid: 29bc47bcbc793c960849ba7fd8528f72, type: 3}
      propertyPath: m_LocalRotation.w
      value: 1
      objectReference: {fileID: 0}
    - target: {fileID: 7971721772568913596, guid: 29bc47bcbc793c960849ba7fd8528f72, type: 3}
      propertyPath: m_RootOrder
      value: 1
      objectReference: {fileID: 0}
    - target: {fileID: 7971721772568913596, guid: 29bc47bcbc793c960849ba7fd8528f72, type: 3}
      propertyPath: m_LocalEulerAnglesHint.x
      value: 0
      objectReference: {fileID: 0}
    - target: {fileID: 7971721772568913596, guid: 29bc47bcbc793c960849ba7fd8528f72, type: 3}
      propertyPath: m_LocalEulerAnglesHint.y
      value: 0
      objectReference: {fileID: 0}
    - target: {fileID: 7971721772568913596, guid: 29bc47bcbc793c960849ba7fd8528f72, type: 3}
      propertyPath: m_LocalEulerAnglesHint.z
      value: 0
      objectReference: {fileID: 0}
    - target: {fileID: 9073991612580822118, guid: 29bc47bcbc793c960849ba7fd8528f72, type: 3}
      propertyPath: m_Enabled
      value: 0
      objectReference: {fileID: 0}
    m_RemovedComponents: []
  m_SourcePrefab: {fileID: 100100000, guid: 29bc47bcbc793c960849ba7fd8528f72, type: 3}
--- !u!4 &5044559369434904146 stripped
Transform:
  m_CorrespondingSourceObject: {fileID: 7971721772568913596, guid: 29bc47bcbc793c960849ba7fd8528f72, type: 3}
  m_PrefabInstance: {fileID: 2927584621287608558}
  m_PrefabAsset: {fileID: 0}
--- !u!1001 &7962235669452843929
PrefabInstance:
  m_ObjectHideFlags: 0
  serializedVersion: 2
  m_Modification:
    m_TransformParent: {fileID: 8815309789709650847}
    m_Modifications:
    - target: {fileID: 1451375462814669300, guid: a3e6725b362898f4a8b012aecd316032, type: 3}
      propertyPath: m_Name
      value: AllStone1x1
      objectReference: {fileID: 0}
    - target: {fileID: 2961891362287898277, guid: a3e6725b362898f4a8b012aecd316032, type: 3}
      propertyPath: m_LocalPosition.x
      value: 0
      objectReference: {fileID: 0}
    - target: {fileID: 2961891362287898277, guid: a3e6725b362898f4a8b012aecd316032, type: 3}
      propertyPath: m_LocalPosition.y
      value: 0
      objectReference: {fileID: 0}
    - target: {fileID: 2961891362287898277, guid: a3e6725b362898f4a8b012aecd316032, type: 3}
      propertyPath: m_LocalPosition.z
      value: 0
      objectReference: {fileID: 0}
    - target: {fileID: 2961891362287898277, guid: a3e6725b362898f4a8b012aecd316032, type: 3}
      propertyPath: m_LocalRotation.x
      value: 0
      objectReference: {fileID: 0}
    - target: {fileID: 2961891362287898277, guid: a3e6725b362898f4a8b012aecd316032, type: 3}
      propertyPath: m_LocalRotation.y
      value: 0
      objectReference: {fileID: 0}
    - target: {fileID: 2961891362287898277, guid: a3e6725b362898f4a8b012aecd316032, type: 3}
      propertyPath: m_LocalRotation.z
      value: 0
      objectReference: {fileID: 0}
    - target: {fileID: 2961891362287898277, guid: a3e6725b362898f4a8b012aecd316032, type: 3}
      propertyPath: m_LocalRotation.w
      value: 1
      objectReference: {fileID: 0}
    - target: {fileID: 2961891362287898277, guid: a3e6725b362898f4a8b012aecd316032, type: 3}
      propertyPath: m_RootOrder
      value: 0
      objectReference: {fileID: 0}
    - target: {fileID: 2961891362287898277, guid: a3e6725b362898f4a8b012aecd316032, type: 3}
      propertyPath: m_LocalEulerAnglesHint.x
      value: 0
      objectReference: {fileID: 0}
    - target: {fileID: 2961891362287898277, guid: a3e6725b362898f4a8b012aecd316032, type: 3}
      propertyPath: m_LocalEulerAnglesHint.y
      value: 0
      objectReference: {fileID: 0}
    - target: {fileID: 2961891362287898277, guid: a3e6725b362898f4a8b012aecd316032, type: 3}
      propertyPath: m_LocalEulerAnglesHint.z
      value: 0
      objectReference: {fileID: 0}
    m_RemovedComponents: []
  m_SourcePrefab: {fileID: 100100000, guid: a3e6725b362898f4a8b012aecd316032, type: 3}
--- !u!4 &5144601332251469116 stripped
Transform:
  m_CorrespondingSourceObject: {fileID: 2961891362287898277, guid: a3e6725b362898f4a8b012aecd316032, type: 3}
  m_PrefabInstance: {fileID: 7962235669452843929}
  m_PrefabAsset: {fileID: 0}
