%YAML 1.1
%TAG !u! tag:unity3d.com,2011:
--- !u!1 &7407427228435011832
GameObject:
  m_ObjectHideFlags: 0
  m_CorrespondingSourceObject: {fileID: 0}
  m_PrefabInstance: {fileID: 0}
  m_PrefabAsset: {fileID: 0}
  serializedVersion: 6
  m_Component:
  - component: {fileID: 8936830152494144604}
  m_Layer: 0
  m_Name: AllStone2x2
  m_TagString: Untagged
  m_Icon: {fileID: 0}
  m_NavMeshLayer: 0
  m_StaticEditorFlags: 0
  m_IsActive: 1
--- !u!4 &8936830152494144604
Transform:
  m_ObjectHideFlags: 0
  m_CorrespondingSourceObject: {fileID: 0}
  m_PrefabInstance: {fileID: 0}
  m_PrefabAsset: {fileID: 0}
  m_GameObject: {fileID: 7407427228435011832}
  m_LocalRotation: {x: 0, y: 0, z: 0, w: 1}
  m_LocalPosition: {x: 0, y: 0, z: 0}
  m_LocalScale: {x: 1, y: 1, z: 1}
  m_Children:
  - {fileID: 2615398274526442912}
  - {fileID: 2035562305478200435}
  m_Father: {fileID: 0}
  m_RootOrder: 0
  m_LocalEulerAnglesHint: {x: 0, y: 0, z: 0}
--- !u!1001 &4822091390810035975
PrefabInstance:
  m_ObjectHideFlags: 0
  serializedVersion: 2
  m_Modification:
    m_TransformParent: {fileID: 8936830152494144604}
    m_Modifications:
    - target: {fileID: 2590092034490574260, guid: f55de7cd1196fbd66988d62688020c27, type: 3}
      propertyPath: m_Enabled
      value: 0
      objectReference: {fileID: 0}
    - target: {fileID: 3073638987657298855, guid: f55de7cd1196fbd66988d62688020c27, type: 3}
      propertyPath: m_Enabled
      value: 0
      objectReference: {fileID: 0}
    - target: {fileID: 5462016917830058450, guid: f55de7cd1196fbd66988d62688020c27, type: 3}
      propertyPath: m_Name
      value: AllStone2x1 (1)
      objectReference: {fileID: 0}
    - target: {fileID: 6833165371160632180, guid: f55de7cd1196fbd66988d62688020c27, type: 3}
      propertyPath: m_LocalPosition.x
      value: 0
      objectReference: {fileID: 0}
    - target: {fileID: 6833165371160632180, guid: f55de7cd1196fbd66988d62688020c27, type: 3}
      propertyPath: m_LocalPosition.y
      value: -1
      objectReference: {fileID: 0}
    - target: {fileID: 6833165371160632180, guid: f55de7cd1196fbd66988d62688020c27, type: 3}
      propertyPath: m_LocalPosition.z
      value: 0
      objectReference: {fileID: 0}
    - target: {fileID: 6833165371160632180, guid: f55de7cd1196fbd66988d62688020c27, type: 3}
      propertyPath: m_LocalRotation.x
      value: 0
      objectReference: {fileID: 0}
    - target: {fileID: 6833165371160632180, guid: f55de7cd1196fbd66988d62688020c27, type: 3}
      propertyPath: m_LocalRotation.y
      value: 0
      objectReference: {fileID: 0}
    - target: {fileID: 6833165371160632180, guid: f55de7cd1196fbd66988d62688020c27, type: 3}
      propertyPath: m_LocalRotation.z
      value: 0
      objectReference: {fileID: 0}
    - target: {fileID: 6833165371160632180, guid: f55de7cd1196fbd66988d62688020c27, type: 3}
      propertyPath: m_LocalRotation.w
      value: 1
      objectReference: {fileID: 0}
    - target: {fileID: 6833165371160632180, guid: f55de7cd1196fbd66988d62688020c27, type: 3}
      propertyPath: m_RootOrder
      value: 1
      objectReference: {fileID: 0}
    - target: {fileID: 6833165371160632180, guid: f55de7cd1196fbd66988d62688020c27, type: 3}
      propertyPath: m_LocalEulerAnglesHint.x
      value: 0
      objectReference: {fileID: 0}
    - target: {fileID: 6833165371160632180, guid: f55de7cd1196fbd66988d62688020c27, type: 3}
      propertyPath: m_LocalEulerAnglesHint.y
      value: 0
      objectReference: {fileID: 0}
    - target: {fileID: 6833165371160632180, guid: f55de7cd1196fbd66988d62688020c27, type: 3}
      propertyPath: m_LocalEulerAnglesHint.z
      value: 0
      objectReference: {fileID: 0}
    m_RemovedComponents: []
  m_SourcePrefab: {fileID: 100100000, guid: f55de7cd1196fbd66988d62688020c27, type: 3}
--- !u!4 &2035562305478200435 stripped
Transform:
  m_CorrespondingSourceObject: {fileID: 6833165371160632180, guid: f55de7cd1196fbd66988d62688020c27, type: 3}
  m_PrefabInstance: {fileID: 4822091390810035975}
  m_PrefabAsset: {fileID: 0}
--- !u!1001 &8835927693445230292
PrefabInstance:
  m_ObjectHideFlags: 0
  serializedVersion: 2
  m_Modification:
    m_TransformParent: {fileID: 8936830152494144604}
    m_Modifications:
    - target: {fileID: 5462016917830058450, guid: f55de7cd1196fbd66988d62688020c27, type: 3}
      propertyPath: m_Name
      value: AllStone2x1
      objectReference: {fileID: 0}
    - target: {fileID: 6833165371160632180, guid: f55de7cd1196fbd66988d62688020c27, type: 3}
      propertyPath: m_LocalPosition.x
      value: 0
      objectReference: {fileID: 0}
    - target: {fileID: 6833165371160632180, guid: f55de7cd1196fbd66988d62688020c27, type: 3}
      propertyPath: m_LocalPosition.y
      value: 0
      objectReference: {fileID: 0}
    - target: {fileID: 6833165371160632180, guid: f55de7cd1196fbd66988d62688020c27, type: 3}
      propertyPath: m_LocalPosition.z
      value: 0
      objectReference: {fileID: 0}
    - target: {fileID: 6833165371160632180, guid: f55de7cd1196fbd66988d62688020c27, type: 3}
      propertyPath: m_LocalRotation.x
      value: 0
      objectReference: {fileID: 0}
    - target: {fileID: 6833165371160632180, guid: f55de7cd1196fbd66988d62688020c27, type: 3}
      propertyPath: m_LocalRotation.y
      value: 0
      objectReference: {fileID: 0}
    - target: {fileID: 6833165371160632180, guid: f55de7cd1196fbd66988d62688020c27, type: 3}
      propertyPath: m_LocalRotation.z
      value: 0
      objectReference: {fileID: 0}
    - target: {fileID: 6833165371160632180, guid: f55de7cd1196fbd66988d62688020c27, type: 3}
      propertyPath: m_LocalRotation.w
      value: 1
      objectReference: {fileID: 0}
    - target: {fileID: 6833165371160632180, guid: f55de7cd1196fbd66988d62688020c27, type: 3}
      propertyPath: m_RootOrder
      value: 0
      objectReference: {fileID: 0}
    - target: {fileID: 6833165371160632180, guid: f55de7cd1196fbd66988d62688020c27, type: 3}
      propertyPath: m_LocalEulerAnglesHint.x
      value: 0
      objectReference: {fileID: 0}
    - target: {fileID: 6833165371160632180, guid: f55de7cd1196fbd66988d62688020c27, type: 3}
      propertyPath: m_LocalEulerAnglesHint.y
      value: 0
      objectReference: {fileID: 0}
    - target: {fileID: 6833165371160632180, guid: f55de7cd1196fbd66988d62688020c27, type: 3}
      propertyPath: m_LocalEulerAnglesHint.z
      value: 0
      objectReference: {fileID: 0}
    m_RemovedComponents: []
  m_SourcePrefab: {fileID: 100100000, guid: f55de7cd1196fbd66988d62688020c27, type: 3}
--- !u!4 &2615398274526442912 stripped
Transform:
  m_CorrespondingSourceObject: {fileID: 6833165371160632180, guid: f55de7cd1196fbd66988d62688020c27, type: 3}
  m_PrefabInstance: {fileID: 8835927693445230292}
  m_PrefabAsset: {fileID: 0}
