%YAML 1.1
%TAG !u! tag:unity3d.com,2011:
--- !u!1 &8354096685048622673
GameObject:
  m_ObjectHideFlags: 0
  m_CorrespondingSourceObject: {fileID: 0}
  m_PrefabInstance: {fileID: 0}
  m_PrefabAsset: {fileID: 0}
  serializedVersion: 6
  m_Component:
  - component: {fileID: 2832696538535844488}
  m_Layer: 0
  m_Name: AllStone5x5
  m_TagString: Untagged
  m_Icon: {fileID: 0}
  m_NavMeshLayer: 0
  m_StaticEditorFlags: 0
  m_IsActive: 1
--- !u!4 &2832696538535844488
Transform:
  m_ObjectHideFlags: 0
  m_CorrespondingSourceObject: {fileID: 0}
  m_PrefabInstance: {fileID: 0}
  m_PrefabAsset: {fileID: 0}
  m_GameObject: {fileID: 8354096685048622673}
  m_LocalRotation: {x: 0, y: 0, z: 0, w: 1}
  m_LocalPosition: {x: 0, y: 0, z: 0}
  m_LocalScale: {x: 1, y: 1, z: 1}
  m_Children:
  - {fileID: 8411734537847074217}
  - {fileID: 2486084224522650896}
  m_Father: {fileID: 0}
  m_RootOrder: 0
  m_LocalEulerAnglesHint: {x: 0, y: 0, z: 0}
--- !u!1001 &1273684997577327642
PrefabInstance:
  m_ObjectHideFlags: 0
  serializedVersion: 2
  m_Modification:
    m_TransformParent: {fileID: 2832696538535844488}
    m_Modifications:
    - target: {fileID: 3687693485709148426, guid: 0def69818341b854e9a6e7d9ce021754, type: 3}
      propertyPath: m_LocalPosition.x
      value: 0
      objectReference: {fileID: 0}
    - target: {fileID: 3687693485709148426, guid: 0def69818341b854e9a6e7d9ce021754, type: 3}
      propertyPath: m_LocalPosition.y
      value: -1
      objectReference: {fileID: 0}
    - target: {fileID: 3687693485709148426, guid: 0def69818341b854e9a6e7d9ce021754, type: 3}
      propertyPath: m_LocalPosition.z
      value: 0
      objectReference: {fileID: 0}
    - target: {fileID: 3687693485709148426, guid: 0def69818341b854e9a6e7d9ce021754, type: 3}
      propertyPath: m_LocalRotation.x
      value: -0
      objectReference: {fileID: 0}
    - target: {fileID: 3687693485709148426, guid: 0def69818341b854e9a6e7d9ce021754, type: 3}
      propertyPath: m_LocalRotation.y
      value: -0
      objectReference: {fileID: 0}
    - target: {fileID: 3687693485709148426, guid: 0def69818341b854e9a6e7d9ce021754, type: 3}
      propertyPath: m_LocalRotation.z
      value: -0
      objectReference: {fileID: 0}
    - target: {fileID: 3687693485709148426, guid: 0def69818341b854e9a6e7d9ce021754, type: 3}
      propertyPath: m_LocalRotation.w
      value: 1
      objectReference: {fileID: 0}
    - target: {fileID: 3687693485709148426, guid: 0def69818341b854e9a6e7d9ce021754, type: 3}
      propertyPath: m_RootOrder
      value: 1
      objectReference: {fileID: 0}
    - target: {fileID: 3687693485709148426, guid: 0def69818341b854e9a6e7d9ce021754, type: 3}
      propertyPath: m_LocalEulerAnglesHint.x
      value: 0
      objectReference: {fileID: 0}
    - target: {fileID: 3687693485709148426, guid: 0def69818341b854e9a6e7d9ce021754, type: 3}
      propertyPath: m_LocalEulerAnglesHint.y
      value: 0
      objectReference: {fileID: 0}
    - target: {fileID: 3687693485709148426, guid: 0def69818341b854e9a6e7d9ce021754, type: 3}
      propertyPath: m_LocalEulerAnglesHint.z
      value: 0
      objectReference: {fileID: 0}
    - target: {fileID: 5723385963579508354, guid: 0def69818341b854e9a6e7d9ce021754, type: 3}
      propertyPath: m_Enabled
      value: 0
      objectReference: {fileID: 0}
    - target: {fileID: 7093736716531749166, guid: 0def69818341b854e9a6e7d9ce021754, type: 3}
      propertyPath: m_Name
      value: AllStone5x4
      objectReference: {fileID: 0}
    - target: {fileID: 8404071474898799238, guid: 0def69818341b854e9a6e7d9ce021754, type: 3}
      propertyPath: m_Enabled
      value: 0
      objectReference: {fileID: 0}
    m_RemovedComponents: []
  m_SourcePrefab: {fileID: 100100000, guid: 0def69818341b854e9a6e7d9ce021754, type: 3}
--- !u!4 &2486084224522650896 stripped
Transform:
  m_CorrespondingSourceObject: {fileID: 3687693485709148426, guid: 0def69818341b854e9a6e7d9ce021754, type: 3}
  m_PrefabInstance: {fileID: 1273684997577327642}
  m_PrefabAsset: {fileID: 0}
--- !u!1001 &6700956951175805998
PrefabInstance:
  m_ObjectHideFlags: 0
  serializedVersion: 2
  m_Modification:
    m_TransformParent: {fileID: 2832696538535844488}
    m_Modifications:
    - target: {fileID: 2901144059609796999, guid: 3bf483d19696e026ab8200c59009c312, type: 3}
      propertyPath: m_LocalPosition.x
      value: 0
      objectReference: {fileID: 0}
    - target: {fileID: 2901144059609796999, guid: 3bf483d19696e026ab8200c59009c312, type: 3}
      propertyPath: m_LocalPosition.y
      value: 0
      objectReference: {fileID: 0}
    - target: {fileID: 2901144059609796999, guid: 3bf483d19696e026ab8200c59009c312, type: 3}
      propertyPath: m_LocalPosition.z
      value: 0
      objectReference: {fileID: 0}
    - target: {fileID: 2901144059609796999, guid: 3bf483d19696e026ab8200c59009c312, type: 3}
      propertyPath: m_LocalRotation.x
      value: 0
      objectReference: {fileID: 0}
    - target: {fileID: 2901144059609796999, guid: 3bf483d19696e026ab8200c59009c312, type: 3}
      propertyPath: m_LocalRotation.y
      value: 0
      objectReference: {fileID: 0}
    - target: {fileID: 2901144059609796999, guid: 3bf483d19696e026ab8200c59009c312, type: 3}
      propertyPath: m_LocalRotation.z
      value: 0
      objectReference: {fileID: 0}
    - target: {fileID: 2901144059609796999, guid: 3bf483d19696e026ab8200c59009c312, type: 3}
      propertyPath: m_LocalRotation.w
      value: 1
      objectReference: {fileID: 0}
    - target: {fileID: 2901144059609796999, guid: 3bf483d19696e026ab8200c59009c312, type: 3}
      propertyPath: m_RootOrder
      value: 0
      objectReference: {fileID: 0}
    - target: {fileID: 2901144059609796999, guid: 3bf483d19696e026ab8200c59009c312, type: 3}
      propertyPath: m_LocalEulerAnglesHint.x
      value: 0
      objectReference: {fileID: 0}
    - target: {fileID: 2901144059609796999, guid: 3bf483d19696e026ab8200c59009c312, type: 3}
      propertyPath: m_LocalEulerAnglesHint.y
      value: 0
      objectReference: {fileID: 0}
    - target: {fileID: 2901144059609796999, guid: 3bf483d19696e026ab8200c59009c312, type: 3}
      propertyPath: m_LocalEulerAnglesHint.z
      value: 0
      objectReference: {fileID: 0}
    - target: {fileID: 5421553678610507592, guid: 3bf483d19696e026ab8200c59009c312, type: 3}
      propertyPath: m_Name
      value: AllStone5x1
      objectReference: {fileID: 0}
    m_RemovedComponents: []
  m_SourcePrefab: {fileID: 100100000, guid: 3bf483d19696e026ab8200c59009c312, type: 3}
--- !u!4 &8411734537847074217 stripped
Transform:
  m_CorrespondingSourceObject: {fileID: 2901144059609796999, guid: 3bf483d19696e026ab8200c59009c312, type: 3}
  m_PrefabInstance: {fileID: 6700956951175805998}
  m_PrefabAsset: {fileID: 0}
