%YAML 1.1
%TAG !u! tag:unity3d.com,2011:
--- !u!1 &3711683501351815407
GameObject:
  m_ObjectHideFlags: 0
  m_CorrespondingSourceObject: {fileID: 0}
  m_PrefabInstance: {fileID: 0}
  m_PrefabAsset: {fileID: 0}
  serializedVersion: 6
  m_Component:
  - component: {fileID: 8196668069413294375}
  m_Layer: 0
  m_Name: AllStone5x2
  m_TagString: Untagged
  m_Icon: {fileID: 0}
  m_NavMeshLayer: 0
  m_StaticEditorFlags: 0
  m_IsActive: 1
--- !u!4 &8196668069413294375
Transform:
  m_ObjectHideFlags: 0
  m_CorrespondingSourceObject: {fileID: 0}
  m_PrefabInstance: {fileID: 0}
  m_PrefabAsset: {fileID: 0}
  m_GameObject: {fileID: 3711683501351815407}
  m_LocalRotation: {x: 0, y: 0, z: 0, w: 1}
  m_LocalPosition: {x: 0, y: 0, z: 0}
  m_LocalScale: {x: 1, y: 1, z: 1}
  m_Children:
  - {fileID: 2939704759319317735}
  - {fileID: 5565846790632538101}
  m_Father: {fileID: 0}
  m_RootOrder: 0
  m_LocalEulerAnglesHint: {x: 0, y: 0, z: 0}
--- !u!1001 &38565103930842464
PrefabInstance:
  m_ObjectHideFlags: 0
  serializedVersion: 2
  m_Modification:
    m_TransformParent: {fileID: 8196668069413294375}
    m_Modifications:
    - target: {fileID: 2901144059609796999, guid: 3bf483d19696e026ab8200c59009c312, type: 3}
      propertyPath: m_LocalPosition.x
      value: 0
      objectReference: {fileID: 0}
    - target: {fileID: 2901144059609796999, guid: 3bf483d19696e026ab8200c59009c312, type: 3}
      propertyPath: m_LocalPosition.y
      value: -1
      objectReference: {fileID: 0}
    - target: {fileID: 2901144059609796999, guid: 3bf483d19696e026ab8200c59009c312, type: 3}
      propertyPath: m_LocalPosition.z
      value: 0
      objectReference: {fileID: 0}
    - target: {fileID: 2901144059609796999, guid: 3bf483d19696e026ab8200c59009c312, type: 3}
      propertyPath: m_LocalRotation.x
      value: 0
      objectReference: {fileID: 0}
    - target: {fileID: 2901144059609796999, guid: 3bf483d19696e026ab8200c59009c312, type: 3}
      propertyPath: m_LocalRotation.y
      value: 0
      objectReference: {fileID: 0}
    - target: {fileID: 2901144059609796999, guid: 3bf483d19696e026ab8200c59009c312, type: 3}
      propertyPath: m_LocalRotation.z
      value: 0
      objectReference: {fileID: 0}
    - target: {fileID: 2901144059609796999, guid: 3bf483d19696e026ab8200c59009c312, type: 3}
      propertyPath: m_LocalRotation.w
      value: 1
      objectReference: {fileID: 0}
    - target: {fileID: 2901144059609796999, guid: 3bf483d19696e026ab8200c59009c312, type: 3}
      propertyPath: m_RootOrder
      value: 0
      objectReference: {fileID: 0}
    - target: {fileID: 2901144059609796999, guid: 3bf483d19696e026ab8200c59009c312, type: 3}
      propertyPath: m_LocalEulerAnglesHint.x
      value: 0
      objectReference: {fileID: 0}
    - target: {fileID: 2901144059609796999, guid: 3bf483d19696e026ab8200c59009c312, type: 3}
      propertyPath: m_LocalEulerAnglesHint.y
      value: 0
      objectReference: {fileID: 0}
    - target: {fileID: 2901144059609796999, guid: 3bf483d19696e026ab8200c59009c312, type: 3}
      propertyPath: m_LocalEulerAnglesHint.z
      value: 0
      objectReference: {fileID: 0}
    - target: {fileID: 5421553678610507592, guid: 3bf483d19696e026ab8200c59009c312, type: 3}
      propertyPath: m_Name
      value: AllStone5x1 (1)
      objectReference: {fileID: 0}
    m_RemovedComponents: []
  m_SourcePrefab: {fileID: 100100000, guid: 3bf483d19696e026ab8200c59009c312, type: 3}
--- !u!4 &2939704759319317735 stripped
Transform:
  m_CorrespondingSourceObject: {fileID: 2901144059609796999, guid: 3bf483d19696e026ab8200c59009c312, type: 3}
  m_PrefabInstance: {fileID: 38565103930842464}
  m_PrefabAsset: {fileID: 0}
--- !u!1001 &7313620446616792690
PrefabInstance:
  m_ObjectHideFlags: 0
  serializedVersion: 2
  m_Modification:
    m_TransformParent: {fileID: 8196668069413294375}
    m_Modifications:
    - target: {fileID: 2901144059609796999, guid: 3bf483d19696e026ab8200c59009c312, type: 3}
      propertyPath: m_LocalPosition.x
      value: 0
      objectReference: {fileID: 0}
    - target: {fileID: 2901144059609796999, guid: 3bf483d19696e026ab8200c59009c312, type: 3}
      propertyPath: m_LocalPosition.y
      value: 0
      objectReference: {fileID: 0}
    - target: {fileID: 2901144059609796999, guid: 3bf483d19696e026ab8200c59009c312, type: 3}
      propertyPath: m_LocalPosition.z
      value: 0
      objectReference: {fileID: 0}
    - target: {fileID: 2901144059609796999, guid: 3bf483d19696e026ab8200c59009c312, type: 3}
      propertyPath: m_LocalRotation.x
      value: 0
      objectReference: {fileID: 0}
    - target: {fileID: 2901144059609796999, guid: 3bf483d19696e026ab8200c59009c312, type: 3}
      propertyPath: m_LocalRotation.y
      value: 0
      objectReference: {fileID: 0}
    - target: {fileID: 2901144059609796999, guid: 3bf483d19696e026ab8200c59009c312, type: 3}
      propertyPath: m_LocalRotation.z
      value: 0
      objectReference: {fileID: 0}
    - target: {fileID: 2901144059609796999, guid: 3bf483d19696e026ab8200c59009c312, type: 3}
      propertyPath: m_LocalRotation.w
      value: 1
      objectReference: {fileID: 0}
    - target: {fileID: 2901144059609796999, guid: 3bf483d19696e026ab8200c59009c312, type: 3}
      propertyPath: m_RootOrder
      value: 1
      objectReference: {fileID: 0}
    - target: {fileID: 2901144059609796999, guid: 3bf483d19696e026ab8200c59009c312, type: 3}
      propertyPath: m_LocalEulerAnglesHint.x
      value: 0
      objectReference: {fileID: 0}
    - target: {fileID: 2901144059609796999, guid: 3bf483d19696e026ab8200c59009c312, type: 3}
      propertyPath: m_LocalEulerAnglesHint.y
      value: 0
      objectReference: {fileID: 0}
    - target: {fileID: 2901144059609796999, guid: 3bf483d19696e026ab8200c59009c312, type: 3}
      propertyPath: m_LocalEulerAnglesHint.z
      value: 0
      objectReference: {fileID: 0}
    - target: {fileID: 5421553678610507592, guid: 3bf483d19696e026ab8200c59009c312, type: 3}
      propertyPath: m_Name
      value: AllStone5x1
      objectReference: {fileID: 0}
    - target: {fileID: 5725840483266146889, guid: 3bf483d19696e026ab8200c59009c312, type: 3}
      propertyPath: m_Enabled
      value: 0
      objectReference: {fileID: 0}
    - target: {fileID: 8411187923955367501, guid: 3bf483d19696e026ab8200c59009c312, type: 3}
      propertyPath: m_Enabled
      value: 0
      objectReference: {fileID: 0}
    m_RemovedComponents: []
  m_SourcePrefab: {fileID: 100100000, guid: 3bf483d19696e026ab8200c59009c312, type: 3}
--- !u!4 &5565846790632538101 stripped
Transform:
  m_CorrespondingSourceObject: {fileID: 2901144059609796999, guid: 3bf483d19696e026ab8200c59009c312, type: 3}
  m_PrefabInstance: {fileID: 7313620446616792690}
  m_PrefabAsset: {fileID: 0}
