%YAML 1.1
%TAG !u! tag:unity3d.com,2011:
--- !u!1 &8904580156752413333
GameObject:
  m_ObjectHideFlags: 0
  m_CorrespondingSourceObject: {fileID: 0}
  m_PrefabInstance: {fileID: 0}
  m_PrefabAsset: {fileID: 0}
  serializedVersion: 6
  m_Component:
  - component: {fileID: 5687577734642034372}
  m_Layer: 0
  m_Name: AllStone5x3
  m_TagString: Untagged
  m_Icon: {fileID: 0}
  m_NavMeshLayer: 0
  m_StaticEditorFlags: 0
  m_IsActive: 1
--- !u!4 &5687577734642034372
Transform:
  m_ObjectHideFlags: 0
  m_CorrespondingSourceObject: {fileID: 0}
  m_PrefabInstance: {fileID: 0}
  m_PrefabAsset: {fileID: 0}
  m_GameObject: {fileID: 8904580156752413333}
  m_LocalRotation: {x: 0, y: 0, z: 0, w: 1}
  m_LocalPosition: {x: 0, y: 0, z: 0}
  m_LocalScale: {x: 1, y: 1, z: 1}
  m_Children:
  - {fileID: 2912467029629353743}
  - {fileID: 3788997252068869136}
  m_Father: {fileID: 0}
  m_RootOrder: 0
  m_LocalEulerAnglesHint: {x: 0, y: 0, z: 0}
--- !u!1001 &11758673858588296
PrefabInstance:
  m_ObjectHideFlags: 0
  serializedVersion: 2
  m_Modification:
    m_TransformParent: {fileID: 5687577734642034372}
    m_Modifications:
    - target: {fileID: 2901144059609796999, guid: 3bf483d19696e026ab8200c59009c312, type: 3}
      propertyPath: m_LocalPosition.x
      value: 0
      objectReference: {fileID: 0}
    - target: {fileID: 2901144059609796999, guid: 3bf483d19696e026ab8200c59009c312, type: 3}
      propertyPath: m_LocalPosition.y
      value: 0
      objectReference: {fileID: 0}
    - target: {fileID: 2901144059609796999, guid: 3bf483d19696e026ab8200c59009c312, type: 3}
      propertyPath: m_LocalPosition.z
      value: 0
      objectReference: {fileID: 0}
    - target: {fileID: 2901144059609796999, guid: 3bf483d19696e026ab8200c59009c312, type: 3}
      propertyPath: m_LocalRotation.x
      value: 0
      objectReference: {fileID: 0}
    - target: {fileID: 2901144059609796999, guid: 3bf483d19696e026ab8200c59009c312, type: 3}
      propertyPath: m_LocalRotation.y
      value: 0
      objectReference: {fileID: 0}
    - target: {fileID: 2901144059609796999, guid: 3bf483d19696e026ab8200c59009c312, type: 3}
      propertyPath: m_LocalRotation.z
      value: 0
      objectReference: {fileID: 0}
    - target: {fileID: 2901144059609796999, guid: 3bf483d19696e026ab8200c59009c312, type: 3}
      propertyPath: m_LocalRotation.w
      value: 1
      objectReference: {fileID: 0}
    - target: {fileID: 2901144059609796999, guid: 3bf483d19696e026ab8200c59009c312, type: 3}
      propertyPath: m_RootOrder
      value: 0
      objectReference: {fileID: 0}
    - target: {fileID: 2901144059609796999, guid: 3bf483d19696e026ab8200c59009c312, type: 3}
      propertyPath: m_LocalEulerAnglesHint.x
      value: 0
      objectReference: {fileID: 0}
    - target: {fileID: 2901144059609796999, guid: 3bf483d19696e026ab8200c59009c312, type: 3}
      propertyPath: m_LocalEulerAnglesHint.y
      value: 0
      objectReference: {fileID: 0}
    - target: {fileID: 2901144059609796999, guid: 3bf483d19696e026ab8200c59009c312, type: 3}
      propertyPath: m_LocalEulerAnglesHint.z
      value: 0
      objectReference: {fileID: 0}
    - target: {fileID: 5421553678610507592, guid: 3bf483d19696e026ab8200c59009c312, type: 3}
      propertyPath: m_Name
      value: AllStone5x1
      objectReference: {fileID: 0}
    m_RemovedComponents: []
  m_SourcePrefab: {fileID: 100100000, guid: 3bf483d19696e026ab8200c59009c312, type: 3}
--- !u!4 &2912467029629353743 stripped
Transform:
  m_CorrespondingSourceObject: {fileID: 2901144059609796999, guid: 3bf483d19696e026ab8200c59009c312, type: 3}
  m_PrefabInstance: {fileID: 11758673858588296}
  m_PrefabAsset: {fileID: 0}
--- !u!1001 &4995990360910304567
PrefabInstance:
  m_ObjectHideFlags: 0
  serializedVersion: 2
  m_Modification:
    m_TransformParent: {fileID: 5687577734642034372}
    m_Modifications:
    - target: {fileID: 3711683501351815407, guid: 68ebde2c0db2668fd99b1a8d655e7865, type: 3}
      propertyPath: m_Name
      value: AllStone5x2
      objectReference: {fileID: 0}
    - target: {fileID: 5764404477736464169, guid: 68ebde2c0db2668fd99b1a8d655e7865, type: 3}
      propertyPath: m_Enabled
      value: 0
      objectReference: {fileID: 0}
    - target: {fileID: 8196668069413294375, guid: 68ebde2c0db2668fd99b1a8d655e7865, type: 3}
      propertyPath: m_LocalPosition.x
      value: 0
      objectReference: {fileID: 0}
    - target: {fileID: 8196668069413294375, guid: 68ebde2c0db2668fd99b1a8d655e7865, type: 3}
      propertyPath: m_LocalPosition.y
      value: -1
      objectReference: {fileID: 0}
    - target: {fileID: 8196668069413294375, guid: 68ebde2c0db2668fd99b1a8d655e7865, type: 3}
      propertyPath: m_LocalPosition.z
      value: 0
      objectReference: {fileID: 0}
    - target: {fileID: 8196668069413294375, guid: 68ebde2c0db2668fd99b1a8d655e7865, type: 3}
      propertyPath: m_LocalRotation.x
      value: 0
      objectReference: {fileID: 0}
    - target: {fileID: 8196668069413294375, guid: 68ebde2c0db2668fd99b1a8d655e7865, type: 3}
      propertyPath: m_LocalRotation.y
      value: 0
      objectReference: {fileID: 0}
    - target: {fileID: 8196668069413294375, guid: 68ebde2c0db2668fd99b1a8d655e7865, type: 3}
      propertyPath: m_LocalRotation.z
      value: 0
      objectReference: {fileID: 0}
    - target: {fileID: 8196668069413294375, guid: 68ebde2c0db2668fd99b1a8d655e7865, type: 3}
      propertyPath: m_LocalRotation.w
      value: 1
      objectReference: {fileID: 0}
    - target: {fileID: 8196668069413294375, guid: 68ebde2c0db2668fd99b1a8d655e7865, type: 3}
      propertyPath: m_RootOrder
      value: 1
      objectReference: {fileID: 0}
    - target: {fileID: 8196668069413294375, guid: 68ebde2c0db2668fd99b1a8d655e7865, type: 3}
      propertyPath: m_LocalEulerAnglesHint.x
      value: 0
      objectReference: {fileID: 0}
    - target: {fileID: 8196668069413294375, guid: 68ebde2c0db2668fd99b1a8d655e7865, type: 3}
      propertyPath: m_LocalEulerAnglesHint.y
      value: 0
      objectReference: {fileID: 0}
    - target: {fileID: 8196668069413294375, guid: 68ebde2c0db2668fd99b1a8d655e7865, type: 3}
      propertyPath: m_LocalEulerAnglesHint.z
      value: 0
      objectReference: {fileID: 0}
    - target: {fileID: 8373185785027633965, guid: 68ebde2c0db2668fd99b1a8d655e7865, type: 3}
      propertyPath: m_Enabled
      value: 0
      objectReference: {fileID: 0}
    m_RemovedComponents: []
  m_SourcePrefab: {fileID: 100100000, guid: 68ebde2c0db2668fd99b1a8d655e7865, type: 3}
--- !u!4 &3788997252068869136 stripped
Transform:
  m_CorrespondingSourceObject: {fileID: 8196668069413294375, guid: 68ebde2c0db2668fd99b1a8d655e7865, type: 3}
  m_PrefabInstance: {fileID: 4995990360910304567}
  m_PrefabAsset: {fileID: 0}
