%YAML 1.1
%TAG !u! tag:unity3d.com,2011:
--- !u!1 &4581877568349641452
GameObject:
  m_ObjectHideFlags: 0
  m_CorrespondingSourceObject: {fileID: 0}
  m_PrefabInstance: {fileID: 0}
  m_PrefabAsset: {fileID: 0}
  serializedVersion: 6
  m_Component:
  - component: {fileID: 6833047947992775230}
  m_Layer: 0
  m_Name: Moos16x4
  m_TagString: Untagged
  m_Icon: {fileID: 0}
  m_NavMeshLayer: 0
  m_StaticEditorFlags: 0
  m_IsActive: 1
--- !u!4 &6833047947992775230
Transform:
  m_ObjectHideFlags: 0
  m_CorrespondingSourceObject: {fileID: 0}
  m_PrefabInstance: {fileID: 0}
  m_PrefabAsset: {fileID: 0}
  m_GameObject: {fileID: 4581877568349641452}
  m_LocalRotation: {x: 0, y: 0, z: 0, w: 1}
  m_LocalPosition: {x: 0, y: 0, z: 0}
  m_LocalScale: {x: 1, y: 1, z: 1}
  m_Children:
  - {fileID: 2818214665590525960}
  - {fileID: 1603836273244417645}
  m_Father: {fileID: 0}
  m_RootOrder: 0
  m_LocalEulerAnglesHint: {x: 0, y: 0, z: 0}
--- !u!1001 &6808698771830594412
PrefabInstance:
  m_ObjectHideFlags: 0
  serializedVersion: 2
  m_Modification:
    m_TransformParent: {fileID: 6833047947992775230}
    m_Modifications:
    - target: {fileID: 1172913244092168094, guid: 2818ae6094a7226b5906afca2130bdf2, type: 3}
      propertyPath: m_Name
      value: AllStone16x3
      objectReference: {fileID: 0}
    - target: {fileID: 2380526210337540299, guid: 2818ae6094a7226b5906afca2130bdf2, type: 3}
      propertyPath: m_Enabled
      value: 0
      objectReference: {fileID: 0}
    - target: {fileID: 5205215463294334209, guid: 2818ae6094a7226b5906afca2130bdf2, type: 3}
      propertyPath: m_LocalPosition.x
      value: 0
      objectReference: {fileID: 0}
    - target: {fileID: 5205215463294334209, guid: 2818ae6094a7226b5906afca2130bdf2, type: 3}
      propertyPath: m_LocalPosition.y
      value: -1
      objectReference: {fileID: 0}
    - target: {fileID: 5205215463294334209, guid: 2818ae6094a7226b5906afca2130bdf2, type: 3}
      propertyPath: m_LocalPosition.z
      value: 0
      objectReference: {fileID: 0}
    - target: {fileID: 5205215463294334209, guid: 2818ae6094a7226b5906afca2130bdf2, type: 3}
      propertyPath: m_LocalRotation.x
      value: 0
      objectReference: {fileID: 0}
    - target: {fileID: 5205215463294334209, guid: 2818ae6094a7226b5906afca2130bdf2, type: 3}
      propertyPath: m_LocalRotation.y
      value: 0
      objectReference: {fileID: 0}
    - target: {fileID: 5205215463294334209, guid: 2818ae6094a7226b5906afca2130bdf2, type: 3}
      propertyPath: m_LocalRotation.z
      value: 0
      objectReference: {fileID: 0}
    - target: {fileID: 5205215463294334209, guid: 2818ae6094a7226b5906afca2130bdf2, type: 3}
      propertyPath: m_LocalRotation.w
      value: 1
      objectReference: {fileID: 0}
    - target: {fileID: 5205215463294334209, guid: 2818ae6094a7226b5906afca2130bdf2, type: 3}
      propertyPath: m_RootOrder
      value: 1
      objectReference: {fileID: 0}
    - target: {fileID: 5205215463294334209, guid: 2818ae6094a7226b5906afca2130bdf2, type: 3}
      propertyPath: m_LocalEulerAnglesHint.x
      value: 0
      objectReference: {fileID: 0}
    - target: {fileID: 5205215463294334209, guid: 2818ae6094a7226b5906afca2130bdf2, type: 3}
      propertyPath: m_LocalEulerAnglesHint.y
      value: 0
      objectReference: {fileID: 0}
    - target: {fileID: 5205215463294334209, guid: 2818ae6094a7226b5906afca2130bdf2, type: 3}
      propertyPath: m_LocalEulerAnglesHint.z
      value: 0
      objectReference: {fileID: 0}
    - target: {fileID: 7893157139906907092, guid: 2818ae6094a7226b5906afca2130bdf2, type: 3}
      propertyPath: m_Enabled
      value: 0
      objectReference: {fileID: 0}
    m_RemovedComponents: []
  m_SourcePrefab: {fileID: 100100000, guid: 2818ae6094a7226b5906afca2130bdf2, type: 3}
--- !u!4 &1603836273244417645 stripped
Transform:
  m_CorrespondingSourceObject: {fileID: 5205215463294334209, guid: 2818ae6094a7226b5906afca2130bdf2, type: 3}
  m_PrefabInstance: {fileID: 6808698771830594412}
  m_PrefabAsset: {fileID: 0}
--- !u!1001 &6914850874422848375
PrefabInstance:
  m_ObjectHideFlags: 0
  serializedVersion: 2
  m_Modification:
    m_TransformParent: {fileID: 6833047947992775230}
    m_Modifications:
    - target: {fileID: 3016533402177468887, guid: a77e44461efcec7af8c4606f026cde72, type: 3}
      propertyPath: m_Name
      value: Moos16x1
      objectReference: {fileID: 0}
    - target: {fileID: 8712833008175168383, guid: a77e44461efcec7af8c4606f026cde72, type: 3}
      propertyPath: m_LocalPosition.x
      value: 0
      objectReference: {fileID: 0}
    - target: {fileID: 8712833008175168383, guid: a77e44461efcec7af8c4606f026cde72, type: 3}
      propertyPath: m_LocalPosition.y
      value: 0
      objectReference: {fileID: 0}
    - target: {fileID: 8712833008175168383, guid: a77e44461efcec7af8c4606f026cde72, type: 3}
      propertyPath: m_LocalPosition.z
      value: 0
      objectReference: {fileID: 0}
    - target: {fileID: 8712833008175168383, guid: a77e44461efcec7af8c4606f026cde72, type: 3}
      propertyPath: m_LocalRotation.x
      value: 0
      objectReference: {fileID: 0}
    - target: {fileID: 8712833008175168383, guid: a77e44461efcec7af8c4606f026cde72, type: 3}
      propertyPath: m_LocalRotation.y
      value: 0
      objectReference: {fileID: 0}
    - target: {fileID: 8712833008175168383, guid: a77e44461efcec7af8c4606f026cde72, type: 3}
      propertyPath: m_LocalRotation.z
      value: 0
      objectReference: {fileID: 0}
    - target: {fileID: 8712833008175168383, guid: a77e44461efcec7af8c4606f026cde72, type: 3}
      propertyPath: m_LocalRotation.w
      value: 1
      objectReference: {fileID: 0}
    - target: {fileID: 8712833008175168383, guid: a77e44461efcec7af8c4606f026cde72, type: 3}
      propertyPath: m_RootOrder
      value: 0
      objectReference: {fileID: 0}
    - target: {fileID: 8712833008175168383, guid: a77e44461efcec7af8c4606f026cde72, type: 3}
      propertyPath: m_LocalEulerAnglesHint.x
      value: 0
      objectReference: {fileID: 0}
    - target: {fileID: 8712833008175168383, guid: a77e44461efcec7af8c4606f026cde72, type: 3}
      propertyPath: m_LocalEulerAnglesHint.y
      value: 0
      objectReference: {fileID: 0}
    - target: {fileID: 8712833008175168383, guid: a77e44461efcec7af8c4606f026cde72, type: 3}
      propertyPath: m_LocalEulerAnglesHint.z
      value: 0
      objectReference: {fileID: 0}
    m_RemovedComponents: []
  m_SourcePrefab: {fileID: 100100000, guid: a77e44461efcec7af8c4606f026cde72, type: 3}
--- !u!4 &2818214665590525960 stripped
Transform:
  m_CorrespondingSourceObject: {fileID: 8712833008175168383, guid: a77e44461efcec7af8c4606f026cde72, type: 3}
  m_PrefabInstance: {fileID: 6914850874422848375}
  m_PrefabAsset: {fileID: 0}
