%YAML 1.1
%TAG !u! tag:unity3d.com,2011:
--- !u!1 &302757180688540613
GameObject:
  m_ObjectHideFlags: 0
  m_CorrespondingSourceObject: {fileID: 0}
  m_PrefabInstance: {fileID: 0}
  m_PrefabAsset: {fileID: 0}
  serializedVersion: 6
  m_Component:
  - component: {fileID: 2447054491464243231}
  m_Layer: 0
  m_Name: Moos5x5
  m_TagString: Untagged
  m_Icon: {fileID: 0}
  m_NavMeshLayer: 0
  m_StaticEditorFlags: 0
  m_IsActive: 1
--- !u!4 &2447054491464243231
Transform:
  m_ObjectHideFlags: 0
  m_CorrespondingSourceObject: {fileID: 0}
  m_PrefabInstance: {fileID: 0}
  m_PrefabAsset: {fileID: 0}
  m_GameObject: {fileID: 302757180688540613}
  m_LocalRotation: {x: 0, y: 0, z: 0, w: 1}
  m_LocalPosition: {x: 20.407816, y: -7.405472, z: -16.455112}
  m_LocalScale: {x: 1, y: 1, z: 1}
  m_Children:
  - {fileID: 1571385728935053571}
  - {fileID: 1030996209443774176}
  m_Father: {fileID: 0}
  m_RootOrder: 0
  m_LocalEulerAnglesHint: {x: 0, y: 0, z: 0}
--- !u!1001 &4423524639030697962
PrefabInstance:
  m_ObjectHideFlags: 0
  serializedVersion: 2
  m_Modification:
    m_TransformParent: {fileID: 2447054491464243231}
    m_Modifications:
    - target: {fileID: 3687693485709148426, guid: 0def69818341b854e9a6e7d9ce021754, type: 3}
      propertyPath: m_LocalPosition.x
      value: 0
      objectReference: {fileID: 0}
    - target: {fileID: 3687693485709148426, guid: 0def69818341b854e9a6e7d9ce021754, type: 3}
      propertyPath: m_LocalPosition.y
      value: -1
      objectReference: {fileID: 0}
    - target: {fileID: 3687693485709148426, guid: 0def69818341b854e9a6e7d9ce021754, type: 3}
      propertyPath: m_LocalPosition.z
      value: 0
      objectReference: {fileID: 0}
    - target: {fileID: 3687693485709148426, guid: 0def69818341b854e9a6e7d9ce021754, type: 3}
      propertyPath: m_LocalRotation.x
      value: 0
      objectReference: {fileID: 0}
    - target: {fileID: 3687693485709148426, guid: 0def69818341b854e9a6e7d9ce021754, type: 3}
      propertyPath: m_LocalRotation.y
      value: 0
      objectReference: {fileID: 0}
    - target: {fileID: 3687693485709148426, guid: 0def69818341b854e9a6e7d9ce021754, type: 3}
      propertyPath: m_LocalRotation.z
      value: 0
      objectReference: {fileID: 0}
    - target: {fileID: 3687693485709148426, guid: 0def69818341b854e9a6e7d9ce021754, type: 3}
      propertyPath: m_LocalRotation.w
      value: 1
      objectReference: {fileID: 0}
    - target: {fileID: 3687693485709148426, guid: 0def69818341b854e9a6e7d9ce021754, type: 3}
      propertyPath: m_RootOrder
      value: 1
      objectReference: {fileID: 0}
    - target: {fileID: 3687693485709148426, guid: 0def69818341b854e9a6e7d9ce021754, type: 3}
      propertyPath: m_LocalEulerAnglesHint.x
      value: 0
      objectReference: {fileID: 0}
    - target: {fileID: 3687693485709148426, guid: 0def69818341b854e9a6e7d9ce021754, type: 3}
      propertyPath: m_LocalEulerAnglesHint.y
      value: 0
      objectReference: {fileID: 0}
    - target: {fileID: 3687693485709148426, guid: 0def69818341b854e9a6e7d9ce021754, type: 3}
      propertyPath: m_LocalEulerAnglesHint.z
      value: 0
      objectReference: {fileID: 0}
    - target: {fileID: 5723385963579508354, guid: 0def69818341b854e9a6e7d9ce021754, type: 3}
      propertyPath: m_Enabled
      value: 0
      objectReference: {fileID: 0}
    - target: {fileID: 7093736716531749166, guid: 0def69818341b854e9a6e7d9ce021754, type: 3}
      propertyPath: m_Name
      value: AllStone5x4
      objectReference: {fileID: 0}
    - target: {fileID: 8404071474898799238, guid: 0def69818341b854e9a6e7d9ce021754, type: 3}
      propertyPath: m_Enabled
      value: 0
      objectReference: {fileID: 0}
    m_RemovedComponents: []
  m_SourcePrefab: {fileID: 100100000, guid: 0def69818341b854e9a6e7d9ce021754, type: 3}
--- !u!4 &1030996209443774176 stripped
Transform:
  m_CorrespondingSourceObject: {fileID: 3687693485709148426, guid: 0def69818341b854e9a6e7d9ce021754, type: 3}
  m_PrefabInstance: {fileID: 4423524639030697962}
  m_PrefabAsset: {fileID: 0}
--- !u!1001 &5895864698187421456
PrefabInstance:
  m_ObjectHideFlags: 0
  serializedVersion: 2
  m_Modification:
    m_TransformParent: {fileID: 2447054491464243231}
    m_Modifications:
    - target: {fileID: 3063604188961229456, guid: f1e7b0dc306911e7cba09c117c826d84, type: 3}
      propertyPath: m_Name
      value: Moos5x1
      objectReference: {fileID: 0}
    - target: {fileID: 4908078387780705811, guid: f1e7b0dc306911e7cba09c117c826d84, type: 3}
      propertyPath: m_LocalPosition.x
      value: 0
      objectReference: {fileID: 0}
    - target: {fileID: 4908078387780705811, guid: f1e7b0dc306911e7cba09c117c826d84, type: 3}
      propertyPath: m_LocalPosition.y
      value: 0
      objectReference: {fileID: 0}
    - target: {fileID: 4908078387780705811, guid: f1e7b0dc306911e7cba09c117c826d84, type: 3}
      propertyPath: m_LocalPosition.z
      value: 0
      objectReference: {fileID: 0}
    - target: {fileID: 4908078387780705811, guid: f1e7b0dc306911e7cba09c117c826d84, type: 3}
      propertyPath: m_LocalRotation.x
      value: 0
      objectReference: {fileID: 0}
    - target: {fileID: 4908078387780705811, guid: f1e7b0dc306911e7cba09c117c826d84, type: 3}
      propertyPath: m_LocalRotation.y
      value: 0
      objectReference: {fileID: 0}
    - target: {fileID: 4908078387780705811, guid: f1e7b0dc306911e7cba09c117c826d84, type: 3}
      propertyPath: m_LocalRotation.z
      value: 0
      objectReference: {fileID: 0}
    - target: {fileID: 4908078387780705811, guid: f1e7b0dc306911e7cba09c117c826d84, type: 3}
      propertyPath: m_LocalRotation.w
      value: 1
      objectReference: {fileID: 0}
    - target: {fileID: 4908078387780705811, guid: f1e7b0dc306911e7cba09c117c826d84, type: 3}
      propertyPath: m_RootOrder
      value: 0
      objectReference: {fileID: 0}
    - target: {fileID: 4908078387780705811, guid: f1e7b0dc306911e7cba09c117c826d84, type: 3}
      propertyPath: m_LocalEulerAnglesHint.x
      value: 0
      objectReference: {fileID: 0}
    - target: {fileID: 4908078387780705811, guid: f1e7b0dc306911e7cba09c117c826d84, type: 3}
      propertyPath: m_LocalEulerAnglesHint.y
      value: 0
      objectReference: {fileID: 0}
    - target: {fileID: 4908078387780705811, guid: f1e7b0dc306911e7cba09c117c826d84, type: 3}
      propertyPath: m_LocalEulerAnglesHint.z
      value: 0
      objectReference: {fileID: 0}
    m_RemovedComponents: []
  m_SourcePrefab: {fileID: 100100000, guid: f1e7b0dc306911e7cba09c117c826d84, type: 3}
--- !u!4 &1571385728935053571 stripped
Transform:
  m_CorrespondingSourceObject: {fileID: 4908078387780705811, guid: f1e7b0dc306911e7cba09c117c826d84, type: 3}
  m_PrefabInstance: {fileID: 5895864698187421456}
  m_PrefabAsset: {fileID: 0}
