%YAML 1.1
%TAG !u! tag:unity3d.com,2011:
--- !u!1 &3967669387113106325
GameObject:
  m_ObjectHideFlags: 0
  m_CorrespondingSourceObject: {fileID: 0}
  m_PrefabInstance: {fileID: 0}
  m_PrefabAsset: {fileID: 0}
  serializedVersion: 6
  m_Component:
  - component: {fileID: 7325339596012597798}
  m_Layer: 0
  m_Name: Moos4x2
  m_TagString: Untagged
  m_Icon: {fileID: 0}
  m_NavMeshLayer: 0
  m_StaticEditorFlags: 0
  m_IsActive: 1
--- !u!4 &7325339596012597798
Transform:
  m_ObjectHideFlags: 0
  m_CorrespondingSourceObject: {fileID: 0}
  m_PrefabInstance: {fileID: 0}
  m_PrefabAsset: {fileID: 0}
  m_GameObject: {fileID: 3967669387113106325}
  m_LocalRotation: {x: 0, y: 0, z: 0, w: 1}
  m_LocalPosition: {x: 20.407816, y: -7.405472, z: -16.455112}
  m_LocalScale: {x: 1, y: 1, z: 1}
  m_Children:
  - {fileID: 7051775204224441510}
  - {fileID: 793499550491276151}
  m_Father: {fileID: 0}
  m_RootOrder: 0
  m_LocalEulerAnglesHint: {x: 0, y: 0, z: 0}
--- !u!1001 &3284884195523081168
PrefabInstance:
  m_ObjectHideFlags: 0
  serializedVersion: 2
  m_Modification:
    m_TransformParent: {fileID: 7325339596012597798}
    m_Modifications:
    - target: {fileID: 934978132319937393, guid: b4eaef7b7575284218232f880c12f446, type: 3}
      propertyPath: m_Enabled
      value: 0
      objectReference: {fileID: 0}
    - target: {fileID: 2780220044771344551, guid: b4eaef7b7575284218232f880c12f446, type: 3}
      propertyPath: m_LocalPosition.x
      value: 0
      objectReference: {fileID: 0}
    - target: {fileID: 2780220044771344551, guid: b4eaef7b7575284218232f880c12f446, type: 3}
      propertyPath: m_LocalPosition.y
      value: -1
      objectReference: {fileID: 0}
    - target: {fileID: 2780220044771344551, guid: b4eaef7b7575284218232f880c12f446, type: 3}
      propertyPath: m_LocalPosition.z
      value: 0
      objectReference: {fileID: 0}
    - target: {fileID: 2780220044771344551, guid: b4eaef7b7575284218232f880c12f446, type: 3}
      propertyPath: m_LocalRotation.x
      value: 0
      objectReference: {fileID: 0}
    - target: {fileID: 2780220044771344551, guid: b4eaef7b7575284218232f880c12f446, type: 3}
      propertyPath: m_LocalRotation.y
      value: 0
      objectReference: {fileID: 0}
    - target: {fileID: 2780220044771344551, guid: b4eaef7b7575284218232f880c12f446, type: 3}
      propertyPath: m_LocalRotation.z
      value: 0
      objectReference: {fileID: 0}
    - target: {fileID: 2780220044771344551, guid: b4eaef7b7575284218232f880c12f446, type: 3}
      propertyPath: m_LocalRotation.w
      value: 1
      objectReference: {fileID: 0}
    - target: {fileID: 2780220044771344551, guid: b4eaef7b7575284218232f880c12f446, type: 3}
      propertyPath: m_RootOrder
      value: 1
      objectReference: {fileID: 0}
    - target: {fileID: 2780220044771344551, guid: b4eaef7b7575284218232f880c12f446, type: 3}
      propertyPath: m_LocalEulerAnglesHint.x
      value: 0
      objectReference: {fileID: 0}
    - target: {fileID: 2780220044771344551, guid: b4eaef7b7575284218232f880c12f446, type: 3}
      propertyPath: m_LocalEulerAnglesHint.y
      value: 0
      objectReference: {fileID: 0}
    - target: {fileID: 2780220044771344551, guid: b4eaef7b7575284218232f880c12f446, type: 3}
      propertyPath: m_LocalEulerAnglesHint.z
      value: 0
      objectReference: {fileID: 0}
    - target: {fileID: 3073981829877876347, guid: b4eaef7b7575284218232f880c12f446, type: 3}
      propertyPath: m_Enabled
      value: 0
      objectReference: {fileID: 0}
    - target: {fileID: 3598847792858156889, guid: b4eaef7b7575284218232f880c12f446, type: 3}
      propertyPath: m_Name
      value: AllStone4x1
      objectReference: {fileID: 0}
    m_RemovedComponents: []
  m_SourcePrefab: {fileID: 100100000, guid: b4eaef7b7575284218232f880c12f446, type: 3}
--- !u!4 &793499550491276151 stripped
Transform:
  m_CorrespondingSourceObject: {fileID: 2780220044771344551, guid: b4eaef7b7575284218232f880c12f446, type: 3}
  m_PrefabInstance: {fileID: 3284884195523081168}
  m_PrefabAsset: {fileID: 0}
--- !u!1001 &4401524558837278690
PrefabInstance:
  m_ObjectHideFlags: 0
  serializedVersion: 2
  m_Modification:
    m_TransformParent: {fileID: 7325339596012597798}
    m_Modifications:
    - target: {fileID: 1505014991368310125, guid: 08394992ee86432fab4a8e7db3bc8a69, type: 3}
      propertyPath: m_Name
      value: Moos4x1
      objectReference: {fileID: 0}
    - target: {fileID: 6686063600610835268, guid: 08394992ee86432fab4a8e7db3bc8a69, type: 3}
      propertyPath: m_LocalPosition.x
      value: 0
      objectReference: {fileID: 0}
    - target: {fileID: 6686063600610835268, guid: 08394992ee86432fab4a8e7db3bc8a69, type: 3}
      propertyPath: m_LocalPosition.y
      value: 0
      objectReference: {fileID: 0}
    - target: {fileID: 6686063600610835268, guid: 08394992ee86432fab4a8e7db3bc8a69, type: 3}
      propertyPath: m_LocalPosition.z
      value: 0
      objectReference: {fileID: 0}
    - target: {fileID: 6686063600610835268, guid: 08394992ee86432fab4a8e7db3bc8a69, type: 3}
      propertyPath: m_LocalRotation.x
      value: 0
      objectReference: {fileID: 0}
    - target: {fileID: 6686063600610835268, guid: 08394992ee86432fab4a8e7db3bc8a69, type: 3}
      propertyPath: m_LocalRotation.y
      value: 0
      objectReference: {fileID: 0}
    - target: {fileID: 6686063600610835268, guid: 08394992ee86432fab4a8e7db3bc8a69, type: 3}
      propertyPath: m_LocalRotation.z
      value: 0
      objectReference: {fileID: 0}
    - target: {fileID: 6686063600610835268, guid: 08394992ee86432fab4a8e7db3bc8a69, type: 3}
      propertyPath: m_LocalRotation.w
      value: 1
      objectReference: {fileID: 0}
    - target: {fileID: 6686063600610835268, guid: 08394992ee86432fab4a8e7db3bc8a69, type: 3}
      propertyPath: m_RootOrder
      value: 0
      objectReference: {fileID: 0}
    - target: {fileID: 6686063600610835268, guid: 08394992ee86432fab4a8e7db3bc8a69, type: 3}
      propertyPath: m_LocalEulerAnglesHint.x
      value: 0
      objectReference: {fileID: 0}
    - target: {fileID: 6686063600610835268, guid: 08394992ee86432fab4a8e7db3bc8a69, type: 3}
      propertyPath: m_LocalEulerAnglesHint.y
      value: 0
      objectReference: {fileID: 0}
    - target: {fileID: 6686063600610835268, guid: 08394992ee86432fab4a8e7db3bc8a69, type: 3}
      propertyPath: m_LocalEulerAnglesHint.z
      value: 0
      objectReference: {fileID: 0}
    m_RemovedComponents: []
  m_SourcePrefab: {fileID: 100100000, guid: 08394992ee86432fab4a8e7db3bc8a69, type: 3}
--- !u!4 &7051775204224441510 stripped
Transform:
  m_CorrespondingSourceObject: {fileID: 6686063600610835268, guid: 08394992ee86432fab4a8e7db3bc8a69, type: 3}
  m_PrefabInstance: {fileID: 4401524558837278690}
  m_PrefabAsset: {fileID: 0}
